module gitlab.com/otus-go-hw/copy-files

go 1.13

require (
	github.com/cheggaaa/pb v2.0.7+incompatible
	github.com/mattn/go-colorable v0.1.4 // indirect
	github.com/mattn/go-isatty v0.0.11 // indirect
	golang.org/x/lint v0.0.0-20191125180803-fdd1cda4f05f // indirect
	golang.org/x/tools v0.0.0-20200117220505-0cba7a3a9ee9 // indirect
	gopkg.in/VividCortex/ewma.v1 v1.1.1 // indirect
	gopkg.in/cheggaaa/pb.v2 v2.0.7 // indirect
	gopkg.in/fatih/color.v1 v1.7.0 // indirect
	gopkg.in/mattn/go-colorable.v0 v0.1.0 // indirect
	gopkg.in/mattn/go-isatty.v0 v0.0.4 // indirect
	gopkg.in/mattn/go-runewidth.v0 v0.0.4 // indirect
)
